0.01000 4.77782
0.02000 4.76677
0.03000 4.75576
0.04000 4.74478
0.05000 4.73384
0.06000 4.72294
0.07000 4.71206
0.08000 4.70122
0.09000 4.69042
0.10000 4.67964
0.11000 4.66891
0.12000 4.65820
0.13000 4.64753
0.14000 4.63689
0.15000 4.62628
0.16000 4.61571
0.17000 4.60517
0.18000 4.59466
0.19000 4.58419
0.20000 4.57375
0.21000 4.56334
0.22000 4.55296
0.23000 4.54262
0.24000 4.53231
0.25000 4.52203
0.26000 4.51178
0.27000 4.50156
0.28000 4.49138
0.29000 4.48123
0.30000 4.47111
0.31000 4.46102
0.32000 4.45096
0.33000 4.44093
0.34000 4.43094
0.35000 4.42097
0.36000 4.41104
0.37000 4.40114
0.38000 4.39127
0.39000 4.38143
0.40000 4.37162
0.41000 4.36184
0.42000 4.35209
0.43000 4.34237
0.44000 4.33268
0.45000 4.32302
0.46000 4.31340
0.47000 4.30380
0.48000 4.29423
0.49000 4.28469
0.50000 4.27518
0.51000 4.26570
0.52000 4.25625
0.53000 4.24683
0.54000 4.23744
0.55000 4.22808
0.56000 4.21875
0.57000 4.20945
0.58000 4.20017
0.59000 4.19093
0.60000 4.18171
0.61000 4.17252
0.62000 4.16336
0.63000 4.15423
0.64000 4.14513
0.65000 4.13606
0.66000 4.12701
0.67000 4.11799
0.68000 4.10900
0.69000 4.10004
0.70000 4.09111
0.71000 4.08220
0.72000 4.07333
0.73000 4.06448
0.74000 4.05565
0.75000 4.04686
0.76000 4.03809
0.77000 4.02935
0.78000 4.02064
0.79000 4.01195
0.80000 4.00329
0.81000 3.99466
0.82000 3.98605
0.83000 3.97747
0.84000 3.96892
0.85000 3.96040
0.86000 3.95190
0.87000 3.94343
0.88000 3.93498
0.89000 3.92656
0.90000 3.91817
0.91000 3.90980
0.92000 3.90146
0.93000 3.89315
0.94000 3.88486
0.95000 3.87659
0.96000 3.86836
0.97000 3.86014
0.98000 3.85196
0.99000 3.84380
1.00000 3.83566
1.01000 3.82755
1.02000 3.81947
1.03000 3.81141
1.04000 3.80337
1.05000 3.79536
1.06000 3.78738
1.07000 3.77942
1.08000 3.77149
1.09000 3.76358
1.10000 3.75569
1.11000 3.74783
1.12000 3.73999
1.13000 3.73218
1.14000 3.72439
1.15000 3.71663
1.16000 3.70889
1.17000 3.70117
1.18000 3.69348
1.19000 3.68582
1.20000 3.67817
1.21000 3.67055
1.22000 3.66296
1.23000 3.65539
1.24000 3.64784
1.25000 3.64031
1.26000 3.63281
1.27000 3.62533
1.28000 3.61788
1.29000 3.61045
1.30000 3.60304
1.31000 3.59565
1.32000 3.58829
1.33000 3.58095
1.34000 3.57363
1.35000 3.56634
1.36000 3.55907
1.37000 3.55182
1.38000 3.54459
1.39000 3.53739
1.40000 3.53021
1.41000 3.52305
1.42000 3.51591
1.43000 3.50880
1.44000 3.50171
1.45000 3.49464
1.46000 3.48759
1.47000 3.48057
1.48000 3.47356
1.49000 3.46658
1.50000 3.45962
1.51000 3.45268
1.52000 3.44576
1.53000 3.43887
1.54000 3.43199
1.55000 3.42514
1.56000 3.41831
1.57000 3.41150
1.58000 3.40471
1.59000 3.39794
1.60000 3.39120
1.61000 3.38447
1.62000 3.37777
1.63000 3.37108
1.64000 3.36442
1.65000 3.35778
1.66000 3.35115
1.67000 3.34455
1.68000 3.33797
1.69000 3.33141
1.70000 3.32487
1.71000 3.31836
1.72000 3.31186
1.73000 3.30538
1.74000 3.29892
1.75000 3.29248
1.76000 3.28606
1.77000 3.27967
1.78000 3.27329
1.79000 3.26693
1.80000 3.26059
1.81000 3.25427
1.82000 3.24797
1.83000 3.24169
1.84000 3.23543
1.85000 3.22919
1.86000 3.22297
1.87000 3.21677
1.88000 3.21059
1.89000 3.20442
1.90000 3.19828
1.91000 3.19216
1.92000 3.18605
1.93000 3.17996
1.94000 3.17390
1.95000 3.16785
1.96000 3.16182
1.97000 3.15581
1.98000 3.14981
1.99000 3.14384
2.00000 3.13788
2.01000 3.13195
2.02000 3.12603
2.03000 3.12013
2.04000 3.11425
2.05000 3.10839
2.06000 3.10254
2.07000 3.09671
2.08000 3.09091
2.09000 3.08512
2.10000 3.07934
2.11000 3.07359
2.12000 3.06785
2.13000 3.06213
2.14000 3.05643
2.15000 3.05075
2.16000 3.04508
2.17000 3.03944
2.18000 3.03381
2.19000 3.02819
2.20000 3.02260
2.21000 3.01702
2.22000 3.01146
2.23000 3.00592
2.24000 3.00039
2.25000 2.99489
2.26000 2.98939
2.27000 2.98392
2.28000 2.97846
2.29000 2.97302
2.30000 2.96760
2.31000 2.96219
2.32000 2.95680
2.33000 2.95143
2.34000 2.94608
2.35000 2.94074
2.36000 2.93541
2.37000 2.93011
2.38000 2.92482
2.39000 2.91955
2.40000 2.91429
2.41000 2.90905
2.42000 2.90382
2.43000 2.89862
2.44000 2.89343
2.45000 2.88825
2.46000 2.88309
2.47000 2.87795
2.48000 2.87282
2.49000 2.86771
2.50000 2.86261
2.51000 2.85754
2.52000 2.85247
2.53000 2.84742
2.54000 2.84239
2.55000 2.83738
2.56000 2.83238
2.57000 2.82739
2.58000 2.82242
2.59000 2.81747
2.60000 2.81253
2.61000 2.80761
2.62000 2.80270
2.63000 2.79780
2.64000 2.79293
2.65000 2.78806
2.66000 2.78322
2.67000 2.77839
2.68000 2.77357
2.69000 2.76877
2.70000 2.76398
2.71000 2.75921
2.72000 2.75445
2.73000 2.74971
2.74000 2.74498
2.75000 2.74027
2.76000 2.73557
2.77000 2.73089
2.78000 2.72622
2.79000 2.72156
2.80000 2.71692
2.81000 2.71230
2.82000 2.70769
2.83000 2.70309
2.84000 2.69851
2.85000 2.69394
2.86000 2.68939
2.87000 2.68485
2.88000 2.68032
2.89000 2.67581
2.90000 2.67131
2.91000 2.66683
2.92000 2.66236
2.93000 2.65790
2.94000 2.65346
2.95000 2.64903
2.96000 2.64462
2.97000 2.64022
2.98000 2.63583
2.99000 2.63146
3.00000 2.62710
3.01000 2.62276
3.02000 2.61842
3.03000 2.61410
3.04000 2.60980
3.05000 2.60551
3.06000 2.60123
3.07000 2.59696
3.08000 2.59271
3.09000 2.58847
3.10000 2.58425
3.11000 2.58004
3.12000 2.57584
3.13000 2.57165
3.14000 2.56748
3.15000 2.56332
3.16000 2.55917
3.17000 2.55504
3.18000 2.55092
3.19000 2.54681
3.20000 2.54271
3.21000 2.53863
3.22000 2.53456
3.23000 2.53050
3.24000 2.52646
3.25000 2.52242
3.26000 2.51840
3.27000 2.51440
3.28000 2.51040
3.29000 2.50642
3.30000 2.50245
3.31000 2.49849
3.32000 2.49455
3.33000 2.49061
3.34000 2.48669
3.35000 2.48279
3.36000 2.47889
3.37000 2.47501
3.38000 2.47113
3.39000 2.46727
3.40000 2.46343
3.41000 2.45959
3.42000 2.45577
3.43000 2.45195
3.44000 2.44815
3.45000 2.44437
3.46000 2.44059
3.47000 2.43682
3.48000 2.43307
3.49000 2.42933
3.50000 2.42560
3.51000 2.42188
3.52000 2.41818
3.53000 2.41448
3.54000 2.41080
3.55000 2.40713
3.56000 2.40346
3.57000 2.39982
3.58000 2.39618
3.59000 2.39255
3.60000 2.38894
3.61000 2.38533
3.62000 2.38174
3.63000 2.37816
3.64000 2.37459
3.65000 2.37103
3.66000 2.36748
3.67000 2.36394
3.68000 2.36042
3.69000 2.35690
3.70000 2.35340
3.71000 2.34991
3.72000 2.34642
3.73000 2.34295
3.74000 2.33949
3.75000 2.33604
3.76000 2.33260
3.77000 2.32917
3.78000 2.32576
3.79000 2.32235
3.80000 2.31895
3.81000 2.31557
3.82000 2.31219
3.83000 2.30883
3.84000 2.30547
3.85000 2.30213
3.86000 2.29879
3.87000 2.29547
3.88000 2.29216
3.89000 2.28886
3.90000 2.28556
3.91000 2.28228
3.92000 2.27901
3.93000 2.27575
3.94000 2.27250
3.95000 2.26926
3.96000 2.26602
3.97000 2.26280
3.98000 2.25959
3.99000 2.25639
4.00000 2.25320
4.01000 2.25002
4.02000 2.24685
4.03000 2.24369
4.04000 2.24054
4.05000 2.23739
4.06000 2.23426
4.07000 2.23114
4.08000 2.22803
4.09000 2.22492
4.10000 2.22183
4.11000 2.21875
4.12000 2.21567
4.13000 2.21261
4.14000 2.20956
4.15000 2.20651
4.16000 2.20347
4.17000 2.20045
4.18000 2.19743
4.19000 2.19442
4.20000 2.19143
4.21000 2.18844
4.22000 2.18546
4.23000 2.18249
4.24000 2.17953
4.25000 2.17658
4.26000 2.17363
4.27000 2.17070
4.28000 2.16778
4.29000 2.16486
4.30000 2.16195
4.31000 2.15906
4.32000 2.15617
4.33000 2.15329
4.34000 2.15042
4.35000 2.14756
4.36000 2.14471
4.37000 2.14187
4.38000 2.13903
4.39000 2.13621
4.40000 2.13339
4.41000 2.13058
4.42000 2.12778
4.43000 2.12499
4.44000 2.12221
4.45000 2.11944
4.46000 2.11667
4.47000 2.11392
4.48000 2.11117
4.49000 2.10843
4.50000 2.10570
4.51000 2.10298
4.52000 2.10026
4.53000 2.09756
4.54000 2.09486
4.55000 2.09218
4.56000 2.08950
4.57000 2.08682
4.58000 2.08416
4.59000 2.08151
4.60000 2.07886
4.61000 2.07622
4.62000 2.07359
4.63000 2.07097
4.64000 2.06836
4.65000 2.06575
4.66000 2.06316
4.67000 2.06057
4.68000 2.05799
4.69000 2.05541
4.70000 2.05285
4.71000 2.05029
4.72000 2.04774
4.73000 2.04520
4.74000 2.04267
4.75000 2.04014
4.76000 2.03762
4.77000 2.03511
4.78000 2.03261
4.79000 2.03012
4.80000 2.02763
4.81000 2.02515
4.82000 2.02268
4.83000 2.02022
4.84000 2.01776
4.85000 2.01532
4.86000 2.01288
4.87000 2.01044
4.88000 2.00802
4.89000 2.00560
4.90000 2.00319
4.91000 2.00079
4.92000 1.99839
4.93000 1.99601
4.94000 1.99363
4.95000 1.99125
4.96000 1.98889
4.97000 1.98653
4.98000 1.98418
4.99000 1.98184
5.00000 1.97950
5.01000 1.97717
5.02000 1.97485
5.03000 1.97254
5.04000 1.97023
5.05000 1.96793
5.06000 1.96564
5.07000 1.96335
5.08000 1.96107
5.09000 1.95880
5.10000 1.95654
5.11000 1.95428
5.12000 1.95203
5.13000 1.94979
5.14000 1.94755
5.15000 1.94532
5.16000 1.94310
5.17000 1.94089
5.18000 1.93868
5.19000 1.93648
5.20000 1.93428
5.21000 1.93209
5.22000 1.92991
5.23000 1.92774
5.24000 1.92557
5.25000 1.92341
5.26000 1.92126
5.27000 1.91911
5.28000 1.91697
5.29000 1.91483
5.30000 1.91271
5.31000 1.91059
5.32000 1.90847
5.33000 1.90637
5.34000 1.90427
5.35000 1.90217
5.36000 1.90008
5.37000 1.89800
5.38000 1.89593
5.39000 1.89386
5.40000 1.89180
5.41000 1.88974
5.42000 1.88769
5.43000 1.88565
5.44000 1.88361
5.45000 1.88158
5.46000 1.87956
5.47000 1.87754
5.48000 1.87553
5.49000 1.87353
5.50000 1.87153
5.51000 1.86954
5.52000 1.86755
5.53000 1.86557
5.54000 1.86360
5.55000 1.86163
5.56000 1.85967
5.57000 1.85771
5.58000 1.85576
5.59000 1.85382
5.60000 1.85188
5.61000 1.84995
5.62000 1.84803
5.63000 1.84611
5.64000 1.84419
5.65000 1.84229
5.66000 1.84039
5.67000 1.83849
5.68000 1.83660
5.69000 1.83472
5.70000 1.83284
5.71000 1.83097
5.72000 1.82910
5.73000 1.82724
5.74000 1.82539
5.75000 1.82354
5.76000 1.82170
5.77000 1.81986
5.78000 1.81803
5.79000 1.81620
5.80000 1.81438
5.81000 1.81257
5.82000 1.81076
5.83000 1.80896
5.84000 1.80716
5.85000 1.80537
5.86000 1.80358
5.87000 1.80180
5.88000 1.80002
5.89000 1.79825
5.90000 1.79649
5.91000 1.79473
5.92000 1.79298
5.93000 1.79123
5.94000 1.78949
5.95000 1.78775
5.96000 1.78602
5.97000 1.78429
5.98000 1.78257
5.99000 1.78086
6.00000 1.77915
6.01000 1.77744
6.02000 1.77575
6.03000 1.77405
6.04000 1.77236
6.05000 1.77068
6.06000 1.76900
6.07000 1.76733
6.08000 1.76566
6.09000 1.76400
6.10000 1.76234
6.11000 1.76069
6.12000 1.75904
6.13000 1.75740
6.14000 1.75576
6.15000 1.75413
6.16000 1.75250
6.17000 1.75088
6.18000 1.74927
6.19000 1.74765
6.20000 1.74605
6.21000 1.74445
6.22000 1.74285
6.23000 1.74126
6.24000 1.73967
6.25000 1.73809
6.26000 1.73651
6.27000 1.73494
6.28000 1.73337
6.29000 1.73181
6.30000 1.73026
6.31000 1.72870
6.32000 1.72716
6.33000 1.72561
6.34000 1.72408
6.35000 1.72254
6.36000 1.72101
6.37000 1.71949
6.38000 1.71797
6.39000 1.71646
6.40000 1.71495
6.41000 1.71344
6.42000 1.71194
6.43000 1.71045
6.44000 1.70896
6.45000 1.70747
6.46000 1.70599
6.47000 1.70451
6.48000 1.70304
6.49000 1.70157
6.50000 1.70011
6.51000 1.69865
6.52000 1.69720
6.53000 1.69575
6.54000 1.69431
6.55000 1.69286
6.56000 1.69143
6.57000 1.69000
6.58000 1.68857
6.59000 1.68715
6.60000 1.68573
6.61000 1.68432
6.62000 1.68291
6.63000 1.68150
6.64000 1.68010
6.65000 1.67871
6.66000 1.67731
6.67000 1.67593
6.68000 1.67454
6.69000 1.67317
6.70000 1.67179
6.71000 1.67042
6.72000 1.66905
6.73000 1.66769
6.74000 1.66634
6.75000 1.66498
6.76000 1.66363
6.77000 1.66229
6.78000 1.66095
6.79000 1.65961
6.80000 1.65828
6.81000 1.65695
6.82000 1.65563
6.83000 1.65431
6.84000 1.65299
6.85000 1.65168
6.86000 1.65037
6.87000 1.64907
6.88000 1.64777
6.89000 1.64647
6.90000 1.64518
6.91000 1.64390
6.92000 1.64261
6.93000 1.64133
6.94000 1.64006
6.95000 1.63879
6.96000 1.63752
6.97000 1.63626
6.98000 1.63500
6.99000 1.63374
7.00000 1.63249
7.01000 1.63124
7.02000 1.63000
7.03000 1.62876
7.04000 1.62752
7.05000 1.62629
7.06000 1.62506
7.07000 1.62384
7.08000 1.62261
7.09000 1.62140
7.10000 1.62018
7.11000 1.61898
7.12000 1.61777
7.13000 1.61657
7.14000 1.61537
7.15000 1.61417
7.16000 1.61298
7.17000 1.61180
7.18000 1.61061
7.19000 1.60943
7.20000 1.60826
7.21000 1.60709
7.22000 1.60592
7.23000 1.60475
7.24000 1.60359
7.25000 1.60243
7.26000 1.60128
7.27000 1.60013
7.28000 1.59898
7.29000 1.59784
7.30000 1.59670
7.31000 1.59556
7.32000 1.59443
7.33000 1.59330
7.34000 1.59217
7.35000 1.59105
7.36000 1.58993
7.37000 1.58882
7.38000 1.58771
7.39000 1.58660
7.40000 1.58549
7.41000 1.58439
7.42000 1.58329
7.43000 1.58220
7.44000 1.58111
7.45000 1.58002
7.46000 1.57894
7.47000 1.57786
7.48000 1.57678
7.49000 1.57570
7.50000 1.57463
7.51000 1.57356
7.52000 1.57250
7.53000 1.57144
7.54000 1.57038
7.55000 1.56933
7.56000 1.56828
7.57000 1.56723
7.58000 1.56618
7.59000 1.56514
7.60000 1.56411
7.61000 1.56307
7.62000 1.56204
7.63000 1.56101
7.64000 1.55999
7.65000 1.55896
7.66000 1.55794
7.67000 1.55693
7.68000 1.55592
7.69000 1.55491
7.70000 1.55390
7.71000 1.55290
7.72000 1.55190
7.73000 1.55090
7.74000 1.54991
7.75000 1.54892
7.76000 1.54793
7.77000 1.54695
7.78000 1.54596
7.79000 1.54499
7.80000 1.54401
7.81000 1.54304
7.82000 1.54207
7.83000 1.54110
7.84000 1.54014
7.85000 1.53918
7.86000 1.53822
7.87000 1.53727
7.88000 1.53632
7.89000 1.53537
7.90000 1.53442
7.91000 1.53348
7.92000 1.53254
7.93000 1.53161
7.94000 1.53067
7.95000 1.52974
7.96000 1.52881
7.97000 1.52789
7.98000 1.52697
7.99000 1.52605
8.00000 1.52513
8.01000 1.52422
8.02000 1.52331
8.03000 1.52240
8.04000 1.52150
8.05000 1.52059
8.06000 1.51969
8.07000 1.51880
8.08000 1.51790
8.09000 1.51701
8.10000 1.51612
8.11000 1.51524
8.12000 1.51436
8.13000 1.51348
8.14000 1.51260
8.15000 1.51173
8.16000 1.51085
8.17000 1.50999
8.18000 1.50912
8.19000 1.50826
8.20000 1.50739
8.21000 1.50654
8.22000 1.50568
8.23000 1.50483
8.24000 1.50398
8.25000 1.50313
8.26000 1.50229
8.27000 1.50144
8.28000 1.50060
8.29000 1.49977
8.30000 1.49893
8.31000 1.49810
8.32000 1.49727
8.33000 1.49644
8.34000 1.49562
8.35000 1.49480
8.36000 1.49398
8.37000 1.49316
8.38000 1.49235
8.39000 1.49154
8.40000 1.49073
8.41000 1.48992
8.42000 1.48912
8.43000 1.48832
8.44000 1.48752
8.45000 1.48672
8.46000 1.48593
8.47000 1.48514
8.48000 1.48435
8.49000 1.48356
8.50000 1.48278
8.51000 1.48200
8.52000 1.48122
8.53000 1.48044
8.54000 1.47967
8.55000 1.47890
8.56000 1.47813
8.57000 1.47736
8.58000 1.47660
8.59000 1.47583
8.60000 1.47507
8.61000 1.47432
8.62000 1.47356
8.63000 1.47281
8.64000 1.47206
8.65000 1.47131
8.66000 1.47056
8.67000 1.46982
8.68000 1.46908
8.69000 1.46834
8.70000 1.46760
8.71000 1.46687
8.72000 1.46614
8.73000 1.46541
8.74000 1.46468
8.75000 1.46396
8.76000 1.46323
8.77000 1.46251
8.78000 1.46179
8.79000 1.46108
8.80000 1.46036
8.81000 1.45965
8.82000 1.45894
8.83000 1.45824
8.84000 1.45753
8.85000 1.45683
8.86000 1.45613
8.87000 1.45543
8.88000 1.45473
8.89000 1.45404
8.90000 1.45335
8.91000 1.45266
8.92000 1.45197
8.93000 1.45128
8.94000 1.45060
8.95000 1.44992
8.96000 1.44924
8.97000 1.44856
8.98000 1.44789
8.99000 1.44722
9.00000 1.44654
9.01000 1.44588
9.02000 1.44521
9.03000 1.44455
9.04000 1.44388
9.05000 1.44322
9.06000 1.44256
9.07000 1.44191
9.08000 1.44125
9.09000 1.44060
9.10000 1.43995
9.11000 1.43930
9.12000 1.43866
9.13000 1.43801
9.14000 1.43737
9.15000 1.43673
9.16000 1.43609
9.17000 1.43546
9.18000 1.43482
9.19000 1.43419
9.20000 1.43356
9.21000 1.43293
9.22000 1.43231
9.23000 1.43168
9.24000 1.43106
9.25000 1.43044
9.26000 1.42982
9.27000 1.42920
9.28000 1.42859
9.29000 1.42798
9.30000 1.42737
9.31000 1.42676
9.32000 1.42615
9.33000 1.42555
9.34000 1.42494
9.35000 1.42434
9.36000 1.42374
9.37000 1.42314
9.38000 1.42255
9.39000 1.42195
9.40000 1.42136
9.41000 1.42077
9.42000 1.42018
9.43000 1.41960
9.44000 1.41901
9.45000 1.41843
9.46000 1.41785
9.47000 1.41727
9.48000 1.41669
9.49000 1.41612
9.50000 1.41554
9.51000 1.41497
9.52000 1.41440
9.53000 1.41383
9.54000 1.41327
9.55000 1.41270
9.56000 1.41214
9.57000 1.41158
9.58000 1.41102
9.59000 1.41046
9.60000 1.40990
9.61000 1.40935
9.62000 1.40879
9.63000 1.40824
9.64000 1.40769
9.65000 1.40715
9.66000 1.40660
9.67000 1.40606
9.68000 1.40551
9.69000 1.40497
9.70000 1.40443
9.71000 1.40390
9.72000 1.40336
9.73000 1.40283
9.74000 1.40229
9.75000 1.40176
9.76000 1.40123
9.77000 1.40071
9.78000 1.40018
9.79000 1.39966
9.80000 1.39913
9.81000 1.39861
9.82000 1.39809
9.83000 1.39758
9.84000 1.39706
9.85000 1.39655
9.86000 1.39603
9.87000 1.39552
9.88000 1.39501
9.89000 1.39450
9.90000 1.39400
9.91000 1.39349
9.92000 1.39299
9.93000 1.39249
9.94000 1.39199
9.95000 1.39149
9.96000 1.39099
9.97000 1.39050
9.98000 1.39000
9.99000 1.38951
10.00000 1.38902
