0.47000 5.49000 0.26000
1.41000 4.08000 0.12000
2.36000 3.54000 0.27000
3.30000 2.61000 0.10000
4.24000 2.09000 0.15000
5.18000 1.91000 0.11000
6.13000 1.55000 0.13000
7.07000 1.47000 0.07000
8.01000 1.45000 0.15000
8.95000 1.25000 0.09000
