0.10000 12.64400 0.85800
0.14500 9.23500 0.35900
0.21100 7.37700 0.50500
0.30700 6.46000 0.40300
0.44700 5.55500 0.68300
0.64900 5.89600 0.60500
0.94400 5.67300 0.85600
1.37200 6.96400 0.35100
1.99500 8.89600 1.08300
2.90000 11.35500 1.00200
