0.10000 12.27280 11.76387 12.78172
0.15000 9.15359 8.89091 9.41627
0.20000 7.66955 7.46189 7.87721
0.25000 6.83959 6.62504 7.05414
0.30000 6.33666 6.10566 6.56765
0.35000 6.02060 5.77617 6.26503
0.40000 5.82134 5.56800 6.07468
0.45000 5.69995 5.44159 5.95832
0.50000 5.63306 5.37264 5.89348
0.55000 5.60582 5.34553 5.86611
0.60000 5.60830 5.34970 5.86690
0.65000 5.63366 5.37780 5.88951
0.70000 5.67698 5.42452 5.92943
0.75000 5.73468 5.48595 5.98340
0.80000 5.80406 5.55910 6.04901
0.85000 5.88305 5.64168 6.12442
0.90000 5.97006 5.73187 6.20826
0.95000 6.06383 5.82821 6.29944
1.00000 6.16333 5.92954 6.39711
1.05000 6.26774 6.03491 6.50058
1.10000 6.37641 6.14352 6.60929
1.15000 6.48876 6.25475 6.72277
1.20000 6.60435 6.36808 6.84063
1.25000 6.72279 6.48309 6.96249
1.30000 6.84374 6.59945 7.08802
1.35000 6.96692 6.71690 7.21694
1.40000 7.09210 6.83524 7.34896
1.45000 7.21907 6.95433 7.48381
1.50000 7.34765 7.07405 7.62126
1.55000 7.47769 7.19431 7.76108
1.60000 7.60905 7.31505 7.90305
1.65000 7.74160 7.43621 8.04699
1.70000 7.87525 7.55777 8.19273
1.75000 8.00990 7.67970 8.34010
1.80000 8.14546 7.80196 8.48896
1.85000 8.28187 7.92455 8.63919
1.90000 8.41905 8.04744 8.79065
1.95000 8.55694 8.17063 8.94326
2.00000 8.69550 8.29409 9.09691
2.05000 8.83467 8.41782 9.25152
2.10000 8.97441 8.54181 9.40702
2.15000 9.11469 8.66605 9.56333
2.20000 9.25545 8.79051 9.72039
2.25000 9.39668 8.91521 9.87815
2.30000 9.53834 9.04012 10.03655
2.35000 9.68040 9.16524 10.19555
2.40000 9.82283 9.29055 10.35511
2.45000 9.96563 9.41606 10.51519
2.50000 10.10876 9.54175 10.67576
2.55000 10.25220 9.66762 10.83678
2.60000 10.39593 9.79365 10.99822
2.65000 10.53995 9.91984 11.16006
2.70000 10.68423 10.04619 11.32228
2.75000 10.82876 10.17268 11.48484
2.80000 10.97353 10.29932 11.64774
2.85000 11.11852 10.42609 11.81095
2.90000 11.26372 10.55299 11.97445
2.95000 11.40912 10.68001 12.13823
3.00000 11.55471 10.80716 12.30227
3.05000 11.70049 10.93442 12.46656
3.10000 11.84644 11.06179 12.63108
3.15000 11.99255 11.18926 12.79583
3.20000 12.13882 11.31684 12.96080
3.25000 12.28524 11.44452 13.12596
3.30000 12.43180 11.57229 13.29131
3.35000 12.57850 11.70015 13.45685
3.40000 12.72533 11.82809 13.62256
3.45000 12.87228 11.95613 13.78844
3.50000 13.01936 12.08424 13.95448
