<?xml version="1.0" encoding="utf-8"  standalone="no"?>
<svg 
 width="600" height="480"
 viewBox="0 0 600 480"
 xmlns="http://www.w3.org/2000/svg"
 xmlns:xlink="http://www.w3.org/1999/xlink"
>

<title>Gnuplot</title>
<desc>Produced by GNUPLOT 5.2 patchlevel 2 </desc>

<g id="gnuplot_canvas">

<rect x="0" y="0" width="600" height="480" fill="#ffffff"/>
<defs>

	<circle id='gpDot' r='0.5' stroke-width='0.5'/>
	<path id='gpPt0' stroke-width='0.222' stroke='currentColor' d='M-1,0 h2 M0,-1 v2'/>
	<path id='gpPt1' stroke-width='0.222' stroke='currentColor' d='M-1,-1 L1,1 M1,-1 L-1,1'/>
	<path id='gpPt2' stroke-width='0.222' stroke='currentColor' d='M-1,0 L1,0 M0,-1 L0,1 M-1,-1 L1,1 M-1,1 L1,-1'/>
	<rect id='gpPt3' stroke-width='0.222' stroke='currentColor' x='-1' y='-1' width='2' height='2'/>
	<rect id='gpPt4' stroke-width='0.222' stroke='currentColor' fill='currentColor' x='-1' y='-1' width='2' height='2'/>
	<circle id='gpPt5' stroke-width='0.222' stroke='currentColor' cx='0' cy='0' r='1'/>
	<use xlink:href='#gpPt5' id='gpPt6' fill='currentColor' stroke='none'/>
	<path id='gpPt7' stroke-width='0.222' stroke='currentColor' d='M0,-1.33 L-1.33,0.67 L1.33,0.67 z'/>
	<use xlink:href='#gpPt7' id='gpPt8' fill='currentColor' stroke='none'/>
	<use xlink:href='#gpPt7' id='gpPt9' stroke='currentColor' transform='rotate(180)'/>
	<use xlink:href='#gpPt9' id='gpPt10' fill='currentColor' stroke='none'/>
	<use xlink:href='#gpPt3' id='gpPt11' stroke='currentColor' transform='rotate(45)'/>
	<use xlink:href='#gpPt11' id='gpPt12' fill='currentColor' stroke='none'/>
	<path id='gpPt13' stroke-width='0.222' stroke='currentColor' d='M0,1.330 L1.265,0.411 L0.782,-1.067 L-0.782,-1.076 L-1.265,0.411 z'/>
	<use xlink:href='#gpPt13' id='gpPt14' fill='currentColor' stroke='none'/>
	<filter id='textbox' filterUnits='objectBoundingBox' x='0' y='0' height='1' width='1'>
	  <feFlood flood-color='#FFFFFF' flood-opacity='1' result='bgnd'/>
	  <feComposite in='SourceGraphic' in2='bgnd' operator='atop'/>
	</filter>
	<filter id='greybox' filterUnits='objectBoundingBox' x='0' y='0' height='1' width='1'>
	  <feFlood flood-color='lightgrey' flood-opacity='1' result='grey'/>
	  <feComposite in='SourceGraphic' in2='grey' operator='atop'/>
	</filter>
</defs>
<g fill="none" color="#FFFFFF" stroke="currentColor" stroke-width="1.00" stroke-linecap="butt" stroke-linejoin="miter">
</g>
<g fill="none" color="black" stroke="currentColor" stroke-width="1.00" stroke-linecap="butt" stroke-linejoin="miter">
</g>
<g fill="none" color="black" stroke="black" stroke-width="0.50" stroke-linecap="butt" stroke-linejoin="miter">
</g>
<g fill="none" color="gray" stroke="currentColor" stroke-width="0.50" stroke-linecap="butt" stroke-linejoin="miter">
	<path stroke='gray' stroke-dasharray='2,4' class="gridline"  d='M63.6,422.4 L575.0,422.4  '/></g>
<g fill="none" color="gray" stroke="gray" stroke-width="1.00" stroke-linecap="butt" stroke-linejoin="miter">
</g>
<g fill="none" color="black" stroke="currentColor" stroke-width="1.00" stroke-linecap="butt" stroke-linejoin="miter">
	<path stroke='black'  d='M63.6,422.4 L72.6,422.4 M575.0,422.4 L566.0,422.4  '/>	<g transform="translate(55.3,426.3)" stroke="none" fill="black" font-family="Arial" font-size="12.00"  text-anchor="end">
		<text><tspan font-family="Arial" > 4</tspan></text>
	</g>
</g>
<g fill="none" color="black" stroke="currentColor" stroke-width="1.00" stroke-linecap="butt" stroke-linejoin="miter">
</g>
<g fill="none" color="black" stroke="black" stroke-width="0.50" stroke-linecap="butt" stroke-linejoin="miter">
</g>
<g fill="none" color="gray" stroke="currentColor" stroke-width="0.50" stroke-linecap="butt" stroke-linejoin="miter">
	<path stroke='gray' stroke-dasharray='2,4' class="gridline"  d='M63.6,382.0 L575.0,382.0  '/></g>
<g fill="none" color="gray" stroke="gray" stroke-width="1.00" stroke-linecap="butt" stroke-linejoin="miter">
</g>
<g fill="none" color="black" stroke="currentColor" stroke-width="1.00" stroke-linecap="butt" stroke-linejoin="miter">
	<path stroke='black'  d='M63.6,382.0 L72.6,382.0 M575.0,382.0 L566.0,382.0  '/>	<g transform="translate(55.3,385.9)" stroke="none" fill="black" font-family="Arial" font-size="12.00"  text-anchor="end">
		<text><tspan font-family="Arial" > 5</tspan></text>
	</g>
</g>
<g fill="none" color="black" stroke="currentColor" stroke-width="1.00" stroke-linecap="butt" stroke-linejoin="miter">
</g>
<g fill="none" color="black" stroke="black" stroke-width="0.50" stroke-linecap="butt" stroke-linejoin="miter">
</g>
<g fill="none" color="gray" stroke="currentColor" stroke-width="0.50" stroke-linecap="butt" stroke-linejoin="miter">
	<path stroke='gray' stroke-dasharray='2,4' class="gridline"  d='M63.6,341.5 L575.0,341.5  '/></g>
<g fill="none" color="gray" stroke="gray" stroke-width="1.00" stroke-linecap="butt" stroke-linejoin="miter">
</g>
<g fill="none" color="black" stroke="currentColor" stroke-width="1.00" stroke-linecap="butt" stroke-linejoin="miter">
	<path stroke='black'  d='M63.6,341.5 L72.6,341.5 M575.0,341.5 L566.0,341.5  '/>	<g transform="translate(55.3,345.4)" stroke="none" fill="black" font-family="Arial" font-size="12.00"  text-anchor="end">
		<text><tspan font-family="Arial" > 6</tspan></text>
	</g>
</g>
<g fill="none" color="black" stroke="currentColor" stroke-width="1.00" stroke-linecap="butt" stroke-linejoin="miter">
</g>
<g fill="none" color="black" stroke="black" stroke-width="0.50" stroke-linecap="butt" stroke-linejoin="miter">
</g>
<g fill="none" color="gray" stroke="currentColor" stroke-width="0.50" stroke-linecap="butt" stroke-linejoin="miter">
	<path stroke='gray' stroke-dasharray='2,4' class="gridline"  d='M63.6,301.1 L575.0,301.1  '/></g>
<g fill="none" color="gray" stroke="gray" stroke-width="1.00" stroke-linecap="butt" stroke-linejoin="miter">
</g>
<g fill="none" color="black" stroke="currentColor" stroke-width="1.00" stroke-linecap="butt" stroke-linejoin="miter">
	<path stroke='black'  d='M63.6,301.1 L72.6,301.1 M575.0,301.1 L566.0,301.1  '/>	<g transform="translate(55.3,305.0)" stroke="none" fill="black" font-family="Arial" font-size="12.00"  text-anchor="end">
		<text><tspan font-family="Arial" > 7</tspan></text>
	</g>
</g>
<g fill="none" color="black" stroke="currentColor" stroke-width="1.00" stroke-linecap="butt" stroke-linejoin="miter">
</g>
<g fill="none" color="black" stroke="black" stroke-width="0.50" stroke-linecap="butt" stroke-linejoin="miter">
</g>
<g fill="none" color="gray" stroke="currentColor" stroke-width="0.50" stroke-linecap="butt" stroke-linejoin="miter">
	<path stroke='gray' stroke-dasharray='2,4' class="gridline"  d='M63.6,260.7 L575.0,260.7  '/></g>
<g fill="none" color="gray" stroke="gray" stroke-width="1.00" stroke-linecap="butt" stroke-linejoin="miter">
</g>
<g fill="none" color="black" stroke="currentColor" stroke-width="1.00" stroke-linecap="butt" stroke-linejoin="miter">
	<path stroke='black'  d='M63.6,260.7 L72.6,260.7 M575.0,260.7 L566.0,260.7  '/>	<g transform="translate(55.3,264.6)" stroke="none" fill="black" font-family="Arial" font-size="12.00"  text-anchor="end">
		<text><tspan font-family="Arial" > 8</tspan></text>
	</g>
</g>
<g fill="none" color="black" stroke="currentColor" stroke-width="1.00" stroke-linecap="butt" stroke-linejoin="miter">
</g>
<g fill="none" color="black" stroke="black" stroke-width="0.50" stroke-linecap="butt" stroke-linejoin="miter">
</g>
<g fill="none" color="gray" stroke="currentColor" stroke-width="0.50" stroke-linecap="butt" stroke-linejoin="miter">
	<path stroke='gray' stroke-dasharray='2,4' class="gridline"  d='M63.6,220.2 L575.0,220.2  '/></g>
<g fill="none" color="gray" stroke="gray" stroke-width="1.00" stroke-linecap="butt" stroke-linejoin="miter">
</g>
<g fill="none" color="black" stroke="currentColor" stroke-width="1.00" stroke-linecap="butt" stroke-linejoin="miter">
	<path stroke='black'  d='M63.6,220.2 L72.6,220.2 M575.0,220.2 L566.0,220.2  '/>	<g transform="translate(55.3,224.1)" stroke="none" fill="black" font-family="Arial" font-size="12.00"  text-anchor="end">
		<text><tspan font-family="Arial" > 9</tspan></text>
	</g>
</g>
<g fill="none" color="black" stroke="currentColor" stroke-width="1.00" stroke-linecap="butt" stroke-linejoin="miter">
</g>
<g fill="none" color="black" stroke="black" stroke-width="0.50" stroke-linecap="butt" stroke-linejoin="miter">
</g>
<g fill="none" color="gray" stroke="currentColor" stroke-width="0.50" stroke-linecap="butt" stroke-linejoin="miter">
	<path stroke='gray' stroke-dasharray='2,4' class="gridline"  d='M63.6,179.8 L575.0,179.8  '/></g>
<g fill="none" color="gray" stroke="gray" stroke-width="1.00" stroke-linecap="butt" stroke-linejoin="miter">
</g>
<g fill="none" color="black" stroke="currentColor" stroke-width="1.00" stroke-linecap="butt" stroke-linejoin="miter">
	<path stroke='black'  d='M63.6,179.8 L72.6,179.8 M575.0,179.8 L566.0,179.8  '/>	<g transform="translate(55.3,183.7)" stroke="none" fill="black" font-family="Arial" font-size="12.00"  text-anchor="end">
		<text><tspan font-family="Arial" > 10</tspan></text>
	</g>
</g>
<g fill="none" color="black" stroke="currentColor" stroke-width="1.00" stroke-linecap="butt" stroke-linejoin="miter">
</g>
<g fill="none" color="black" stroke="black" stroke-width="0.50" stroke-linecap="butt" stroke-linejoin="miter">
</g>
<g fill="none" color="gray" stroke="currentColor" stroke-width="0.50" stroke-linecap="butt" stroke-linejoin="miter">
	<path stroke='gray' stroke-dasharray='2,4' class="gridline"  d='M63.6,139.4 L575.0,139.4  '/></g>
<g fill="none" color="gray" stroke="gray" stroke-width="1.00" stroke-linecap="butt" stroke-linejoin="miter">
</g>
<g fill="none" color="black" stroke="currentColor" stroke-width="1.00" stroke-linecap="butt" stroke-linejoin="miter">
	<path stroke='black'  d='M63.6,139.4 L72.6,139.4 M575.0,139.4 L566.0,139.4  '/>	<g transform="translate(55.3,143.3)" stroke="none" fill="black" font-family="Arial" font-size="12.00"  text-anchor="end">
		<text><tspan font-family="Arial" > 11</tspan></text>
	</g>
</g>
<g fill="none" color="black" stroke="currentColor" stroke-width="1.00" stroke-linecap="butt" stroke-linejoin="miter">
</g>
<g fill="none" color="black" stroke="black" stroke-width="0.50" stroke-linecap="butt" stroke-linejoin="miter">
</g>
<g fill="none" color="gray" stroke="currentColor" stroke-width="0.50" stroke-linecap="butt" stroke-linejoin="miter">
	<path stroke='gray' stroke-dasharray='2,4' class="gridline"  d='M63.6,99.0 L416.6,99.0 M566.7,99.0 L575.0,99.0  '/></g>
<g fill="none" color="gray" stroke="gray" stroke-width="1.00" stroke-linecap="butt" stroke-linejoin="miter">
</g>
<g fill="none" color="black" stroke="currentColor" stroke-width="1.00" stroke-linecap="butt" stroke-linejoin="miter">
	<path stroke='black'  d='M63.6,99.0 L72.6,99.0 M575.0,99.0 L566.0,99.0  '/>	<g transform="translate(55.3,102.9)" stroke="none" fill="black" font-family="Arial" font-size="12.00"  text-anchor="end">
		<text><tspan font-family="Arial" > 12</tspan></text>
	</g>
</g>
<g fill="none" color="black" stroke="currentColor" stroke-width="1.00" stroke-linecap="butt" stroke-linejoin="miter">
</g>
<g fill="none" color="black" stroke="black" stroke-width="0.50" stroke-linecap="butt" stroke-linejoin="miter">
</g>
<g fill="none" color="gray" stroke="currentColor" stroke-width="0.50" stroke-linecap="butt" stroke-linejoin="miter">
	<path stroke='gray' stroke-dasharray='2,4' class="gridline"  d='M63.6,58.5 L416.6,58.5 M566.7,58.5 L575.0,58.5  '/></g>
<g fill="none" color="gray" stroke="gray" stroke-width="1.00" stroke-linecap="butt" stroke-linejoin="miter">
</g>
<g fill="none" color="black" stroke="currentColor" stroke-width="1.00" stroke-linecap="butt" stroke-linejoin="miter">
	<path stroke='black'  d='M63.6,58.5 L72.6,58.5 M575.0,58.5 L566.0,58.5  '/>	<g transform="translate(55.3,62.4)" stroke="none" fill="black" font-family="Arial" font-size="12.00"  text-anchor="end">
		<text><tspan font-family="Arial" > 13</tspan></text>
	</g>
</g>
<g fill="none" color="black" stroke="currentColor" stroke-width="1.00" stroke-linecap="butt" stroke-linejoin="miter">
</g>
<g fill="none" color="black" stroke="black" stroke-width="0.50" stroke-linecap="butt" stroke-linejoin="miter">
</g>
<g fill="none" color="gray" stroke="currentColor" stroke-width="0.50" stroke-linecap="butt" stroke-linejoin="miter">
	<path stroke='gray' stroke-dasharray='2,4' class="gridline"  d='M63.6,18.1 L575.0,18.1  '/></g>
<g fill="none" color="gray" stroke="gray" stroke-width="1.00" stroke-linecap="butt" stroke-linejoin="miter">
</g>
<g fill="none" color="black" stroke="currentColor" stroke-width="1.00" stroke-linecap="butt" stroke-linejoin="miter">
	<path stroke='black'  d='M63.6,18.1 L72.6,18.1 M575.0,18.1 L566.0,18.1  '/>	<g transform="translate(55.3,22.0)" stroke="none" fill="black" font-family="Arial" font-size="12.00"  text-anchor="end">
		<text><tspan font-family="Arial" > 14</tspan></text>
	</g>
</g>
<g fill="none" color="black" stroke="currentColor" stroke-width="1.00" stroke-linecap="butt" stroke-linejoin="miter">
</g>
<g fill="none" color="black" stroke="black" stroke-width="0.50" stroke-linecap="butt" stroke-linejoin="miter">
</g>
<g fill="none" color="gray" stroke="currentColor" stroke-width="0.50" stroke-linecap="butt" stroke-linejoin="miter">
	<path stroke='gray' stroke-dasharray='2,4' class="gridline"  d='M63.6,422.4 L63.6,18.1  '/></g>
<g fill="none" color="gray" stroke="gray" stroke-width="1.00" stroke-linecap="butt" stroke-linejoin="miter">
</g>
<g fill="none" color="black" stroke="currentColor" stroke-width="1.00" stroke-linecap="butt" stroke-linejoin="miter">
	<path stroke='black'  d='M63.6,422.4 L63.6,413.4 M63.6,18.1 L63.6,27.1  '/>	<g transform="translate(63.6,444.3)" stroke="none" fill="black" font-family="Arial" font-size="12.00"  text-anchor="middle">
		<text><tspan font-family="Arial" > 0</tspan></text>
	</g>
</g>
<g fill="none" color="black" stroke="currentColor" stroke-width="1.00" stroke-linecap="butt" stroke-linejoin="miter">
</g>
<g fill="none" color="black" stroke="black" stroke-width="0.50" stroke-linecap="butt" stroke-linejoin="miter">
</g>
<g fill="none" color="gray" stroke="currentColor" stroke-width="0.50" stroke-linecap="butt" stroke-linejoin="miter">
	<path stroke='gray' stroke-dasharray='2,4' class="gridline"  d='M136.7,422.4 L136.7,18.1  '/></g>
<g fill="none" color="gray" stroke="gray" stroke-width="1.00" stroke-linecap="butt" stroke-linejoin="miter">
</g>
<g fill="none" color="black" stroke="currentColor" stroke-width="1.00" stroke-linecap="butt" stroke-linejoin="miter">
	<path stroke='black'  d='M136.7,422.4 L136.7,413.4 M136.7,18.1 L136.7,27.1  '/>	<g transform="translate(136.7,444.3)" stroke="none" fill="black" font-family="Arial" font-size="12.00"  text-anchor="middle">
		<text><tspan font-family="Arial" > 0.5</tspan></text>
	</g>
</g>
<g fill="none" color="black" stroke="currentColor" stroke-width="1.00" stroke-linecap="butt" stroke-linejoin="miter">
</g>
<g fill="none" color="black" stroke="black" stroke-width="0.50" stroke-linecap="butt" stroke-linejoin="miter">
</g>
<g fill="none" color="gray" stroke="currentColor" stroke-width="0.50" stroke-linecap="butt" stroke-linejoin="miter">
	<path stroke='gray' stroke-dasharray='2,4' class="gridline"  d='M209.7,422.4 L209.7,18.1  '/></g>
<g fill="none" color="gray" stroke="gray" stroke-width="1.00" stroke-linecap="butt" stroke-linejoin="miter">
</g>
<g fill="none" color="black" stroke="currentColor" stroke-width="1.00" stroke-linecap="butt" stroke-linejoin="miter">
	<path stroke='black'  d='M209.7,422.4 L209.7,413.4 M209.7,18.1 L209.7,27.1  '/>	<g transform="translate(209.7,444.3)" stroke="none" fill="black" font-family="Arial" font-size="12.00"  text-anchor="middle">
		<text><tspan font-family="Arial" > 1</tspan></text>
	</g>
</g>
<g fill="none" color="black" stroke="currentColor" stroke-width="1.00" stroke-linecap="butt" stroke-linejoin="miter">
</g>
<g fill="none" color="black" stroke="black" stroke-width="0.50" stroke-linecap="butt" stroke-linejoin="miter">
</g>
<g fill="none" color="gray" stroke="currentColor" stroke-width="0.50" stroke-linecap="butt" stroke-linejoin="miter">
	<path stroke='gray' stroke-dasharray='2,4' class="gridline"  d='M282.8,422.4 L282.8,18.1  '/></g>
<g fill="none" color="gray" stroke="gray" stroke-width="1.00" stroke-linecap="butt" stroke-linejoin="miter">
</g>
<g fill="none" color="black" stroke="currentColor" stroke-width="1.00" stroke-linecap="butt" stroke-linejoin="miter">
	<path stroke='black'  d='M282.8,422.4 L282.8,413.4 M282.8,18.1 L282.8,27.1  '/>	<g transform="translate(282.8,444.3)" stroke="none" fill="black" font-family="Arial" font-size="12.00"  text-anchor="middle">
		<text><tspan font-family="Arial" > 1.5</tspan></text>
	</g>
</g>
<g fill="none" color="black" stroke="currentColor" stroke-width="1.00" stroke-linecap="butt" stroke-linejoin="miter">
</g>
<g fill="none" color="black" stroke="black" stroke-width="0.50" stroke-linecap="butt" stroke-linejoin="miter">
</g>
<g fill="none" color="gray" stroke="currentColor" stroke-width="0.50" stroke-linecap="butt" stroke-linejoin="miter">
	<path stroke='gray' stroke-dasharray='2,4' class="gridline"  d='M355.8,422.4 L355.8,18.1  '/></g>
<g fill="none" color="gray" stroke="gray" stroke-width="1.00" stroke-linecap="butt" stroke-linejoin="miter">
</g>
<g fill="none" color="black" stroke="currentColor" stroke-width="1.00" stroke-linecap="butt" stroke-linejoin="miter">
	<path stroke='black'  d='M355.8,422.4 L355.8,413.4 M355.8,18.1 L355.8,27.1  '/>	<g transform="translate(355.8,444.3)" stroke="none" fill="black" font-family="Arial" font-size="12.00"  text-anchor="middle">
		<text><tspan font-family="Arial" > 2</tspan></text>
	</g>
</g>
<g fill="none" color="black" stroke="currentColor" stroke-width="1.00" stroke-linecap="butt" stroke-linejoin="miter">
</g>
<g fill="none" color="black" stroke="black" stroke-width="0.50" stroke-linecap="butt" stroke-linejoin="miter">
</g>
<g fill="none" color="gray" stroke="currentColor" stroke-width="0.50" stroke-linecap="butt" stroke-linejoin="miter">
	<path stroke='gray' stroke-dasharray='2,4' class="gridline"  d='M428.9,422.4 L428.9,117.1 M428.9,27.1 L428.9,18.1  '/></g>
<g fill="none" color="gray" stroke="gray" stroke-width="1.00" stroke-linecap="butt" stroke-linejoin="miter">
</g>
<g fill="none" color="black" stroke="currentColor" stroke-width="1.00" stroke-linecap="butt" stroke-linejoin="miter">
	<path stroke='black'  d='M428.9,422.4 L428.9,413.4 M428.9,18.1 L428.9,27.1  '/>	<g transform="translate(428.9,444.3)" stroke="none" fill="black" font-family="Arial" font-size="12.00"  text-anchor="middle">
		<text><tspan font-family="Arial" > 2.5</tspan></text>
	</g>
</g>
<g fill="none" color="black" stroke="currentColor" stroke-width="1.00" stroke-linecap="butt" stroke-linejoin="miter">
</g>
<g fill="none" color="black" stroke="black" stroke-width="0.50" stroke-linecap="butt" stroke-linejoin="miter">
</g>
<g fill="none" color="gray" stroke="currentColor" stroke-width="0.50" stroke-linecap="butt" stroke-linejoin="miter">
	<path stroke='gray' stroke-dasharray='2,4' class="gridline"  d='M501.9,422.4 L501.9,117.1 M501.9,27.1 L501.9,18.1  '/></g>
<g fill="none" color="gray" stroke="gray" stroke-width="1.00" stroke-linecap="butt" stroke-linejoin="miter">
</g>
<g fill="none" color="black" stroke="currentColor" stroke-width="1.00" stroke-linecap="butt" stroke-linejoin="miter">
	<path stroke='black'  d='M501.9,422.4 L501.9,413.4 M501.9,18.1 L501.9,27.1  '/>	<g transform="translate(501.9,444.3)" stroke="none" fill="black" font-family="Arial" font-size="12.00"  text-anchor="middle">
		<text><tspan font-family="Arial" > 3</tspan></text>
	</g>
</g>
<g fill="none" color="black" stroke="currentColor" stroke-width="1.00" stroke-linecap="butt" stroke-linejoin="miter">
</g>
<g fill="none" color="black" stroke="black" stroke-width="0.50" stroke-linecap="butt" stroke-linejoin="miter">
</g>
<g fill="none" color="gray" stroke="currentColor" stroke-width="0.50" stroke-linecap="butt" stroke-linejoin="miter">
	<path stroke='gray' stroke-dasharray='2,4' class="gridline"  d='M575.0,422.4 L575.0,18.1  '/></g>
<g fill="none" color="gray" stroke="gray" stroke-width="1.00" stroke-linecap="butt" stroke-linejoin="miter">
</g>
<g fill="none" color="black" stroke="currentColor" stroke-width="1.00" stroke-linecap="butt" stroke-linejoin="miter">
	<path stroke='black'  d='M575.0,422.4 L575.0,413.4 M575.0,18.1 L575.0,27.1  '/>	<g transform="translate(575.0,444.3)" stroke="none" fill="black" font-family="Arial" font-size="12.00"  text-anchor="middle">
		<text><tspan font-family="Arial" > 3.5</tspan></text>
	</g>
</g>
<g fill="none" color="black" stroke="currentColor" stroke-width="1.00" stroke-linecap="butt" stroke-linejoin="miter">
</g>
<g fill="none" color="black" stroke="currentColor" stroke-width="1.00" stroke-linecap="butt" stroke-linejoin="miter">
	<path stroke='black'  d='M63.6,18.1 L63.6,422.4 L575.0,422.4 L575.0,18.1 L63.6,18.1 Z  '/></g>
<g fill="none" color="black" stroke="currentColor" stroke-width="1.00" stroke-linecap="butt" stroke-linejoin="miter">
	<g transform="translate(16.3,220.3) rotate(270)" stroke="none" fill="black" font-family="Arial" font-size="12.00"  text-anchor="middle">
		<text><tspan font-family="Arial" >A</tspan></text>
	</g>
</g>
<g fill="none" color="black" stroke="currentColor" stroke-width="1.00" stroke-linecap="butt" stroke-linejoin="miter">
	<g transform="translate(319.3,471.3)" stroke="none" fill="black" font-family="Arial" font-size="12.00"  text-anchor="middle">
		<text><tspan font-family="Arial" >t</tspan></text>
	</g>
</g>
<g fill="none" color="black" stroke="currentColor" stroke-width="1.00" stroke-linecap="butt" stroke-linejoin="miter">
</g>
	<g id="gnuplot_plot_1" ><title>F(x)</title>
<g fill="none" color="black" stroke="currentColor" stroke-width="1.00" stroke-linecap="butt" stroke-linejoin="miter">
	<g transform="translate(507.9,40.0)" stroke="none" fill="black" font-family="Arial" font-size="12.00"  text-anchor="end">
		<text><tspan font-family="Arial" >F(x)</tspan></text>
	</g>
</g>
<g fill="none" color="black" stroke="currentColor" stroke-width="1.00" stroke-linecap="butt" stroke-linejoin="miter">
	<path stroke='rgb(255,   0,   0)'  d='M516.2,36.1 L558.4,36.1 M78.2,87.9 L85.5,214.0 L92.8,274.0 L100.1,307.6 L107.4,327.9 L114.7,340.7
		L122.0,348.8 L129.4,353.7 L136.7,356.4 L144.0,357.5 L151.3,357.4 L158.6,356.4 L165.9,354.6 L173.2,352.3
		L180.5,349.5 L187.8,346.3 L195.1,342.8 L202.4,339.0 L209.7,334.9 L217.0,330.7 L224.3,326.3 L231.6,321.8
		L238.9,317.1 L246.2,312.3 L253.5,307.4 L260.9,302.4 L268.2,297.4 L275.5,292.3 L282.8,287.1 L290.1,281.8
		L297.4,276.5 L304.7,271.1 L312.0,265.7 L319.3,260.3 L326.6,254.8 L333.9,249.3 L341.2,243.7 L348.5,238.2
		L355.8,232.6 L363.1,226.9 L370.4,221.3 L377.7,215.6 L385.1,209.9 L392.4,204.2 L399.7,198.5 L407.0,192.7
		L414.3,187.0 L421.6,181.2 L428.9,175.4 L436.2,169.6 L443.5,163.8 L450.8,158.0 L458.1,152.2 L465.4,146.3
		L472.7,140.5 L480.0,134.6 L487.3,128.7 L494.6,122.8 L501.9,117.0 L509.2,111.1 L516.6,105.2 L523.9,99.3
		L531.2,93.3 L538.5,87.4 L545.8,81.5 L553.1,75.6 L560.4,69.6 L567.7,63.7 L575.0,57.7  '/></g>
	</g>
	<g id="gnuplot_plot_2" ><title>F(x) - dx</title>
<g fill="none" color="#FFFFFF" stroke="rgb(255,   0,   0)" stroke-width="2.00" stroke-linecap="butt" stroke-linejoin="miter">
</g>
<g fill="none" color="black" stroke="currentColor" stroke-width="2.00" stroke-linecap="butt" stroke-linejoin="miter">
	<g transform="translate(507.9,58.0)" stroke="none" fill="black" font-family="Arial" font-size="12.00"  text-anchor="end">
		<text><tspan font-family="Arial" >F(x) - dx</tspan></text>
	</g>
</g>
<g fill="none" color="black" stroke="currentColor" stroke-width="2.00" stroke-linecap="butt" stroke-linejoin="miter">
	<path stroke='rgb(  0,   0,   0)' stroke-dasharray=' 5,8'  d='M516.2,54.1 L558.4,54.1 M78.2,108.5 L85.5,224.7 L92.8,282.4 L100.1,316.3 L107.4,337.3 L114.7,350.6
		L122.0,359.0 L129.4,364.1 L136.7,366.9 L144.0,368.0 L151.3,367.8 L158.6,366.7 L165.9,364.8 L173.2,362.3
		L180.5,359.4 L187.8,356.0 L195.1,352.4 L202.4,348.5 L209.7,344.4 L217.0,340.1 L224.3,335.7 L231.6,331.2
		L238.9,326.7 L246.2,322.0 L253.5,317.3 L260.9,312.6 L268.2,307.8 L275.5,303.0 L282.8,298.1 L290.1,293.3
		L297.4,288.4 L304.7,283.5 L312.0,278.6 L319.3,273.6 L326.6,268.7 L333.9,263.7 L341.2,258.8 L348.5,253.8
		L355.8,248.8 L363.1,243.8 L370.4,238.8 L377.7,233.8 L385.1,228.7 L392.4,223.7 L399.7,218.6 L407.0,213.6
		L414.3,208.5 L421.6,203.4 L428.9,198.3 L436.2,193.3 L443.5,188.2 L450.8,183.1 L458.1,178.0 L465.4,172.8
		L472.7,167.7 L480.0,162.6 L487.3,157.5 L494.6,152.3 L501.9,147.2 L509.2,142.0 L516.6,136.9 L523.9,131.7
		L531.2,126.6 L538.5,121.4 L545.8,116.3 L553.1,111.1 L560.4,105.9 L567.7,100.7 L575.0,95.6  '/></g>
	</g>
	<g id="gnuplot_plot_3" ><title>F(x) + dx</title>
<g fill="none" color="black" stroke="currentColor" stroke-width="2.00" stroke-linecap="butt" stroke-linejoin="miter">
	<g transform="translate(507.9,76.0)" stroke="none" fill="black" font-family="Arial" font-size="12.00"  text-anchor="end">
		<text><tspan font-family="Arial" >F(x) + dx</tspan></text>
	</g>
</g>
<g fill="none" color="black" stroke="currentColor" stroke-width="2.00" stroke-linecap="butt" stroke-linejoin="miter">
	<path stroke='rgb(  0,   0,   0)' stroke-dasharray=' 5,8'  d='M516.2,72.1 L558.4,72.1 M78.2,67.4 L85.5,203.4 L92.8,265.6 L100.1,298.9 L107.4,318.6 L114.7,330.8
		L122.0,338.5 L129.4,343.2 L136.7,345.8 L144.0,347.0 L151.3,346.9 L158.6,346.0 L165.9,344.4 L173.2,342.2
		L180.5,339.6 L187.8,336.5 L195.1,333.1 L202.4,329.4 L209.7,325.5 L217.0,321.3 L224.3,316.9 L231.6,312.3
		L238.9,307.6 L246.2,302.6 L253.5,297.6 L260.9,292.3 L268.2,287.0 L275.5,281.5 L282.8,276.0 L290.1,270.3
		L297.4,264.6 L304.7,258.8 L312.0,252.9 L319.3,246.9 L326.6,240.9 L333.9,234.8 L341.2,228.7 L348.5,222.5
		L355.8,216.3 L363.1,210.1 L370.4,203.8 L377.7,197.5 L385.1,191.1 L392.4,184.7 L399.7,178.3 L407.0,171.9
		L414.3,165.5 L421.6,159.0 L428.9,152.5 L436.2,146.0 L443.5,139.5 L450.8,132.9 L458.1,126.4 L465.4,119.8
		L472.7,113.2 L480.0,106.6 L487.3,100.0 L494.6,93.4 L501.9,86.7 L509.2,80.1 L516.6,73.4 L523.9,66.8
		L531.2,60.1 L538.5,53.4 L545.8,46.8 L553.1,40.1 L560.4,33.4 L567.7,26.7 L575.0,19.9  '/></g>
	</g>
	<g id="gnuplot_plot_4" ><title>"data2.txt"</title>
<g fill="none" color="#FFFFFF" stroke="rgb(  0,   0,   0)" stroke-width="1.00" stroke-linecap="butt" stroke-linejoin="miter">
</g>
<g fill="none" color="black" stroke="currentColor" stroke-width="1.00" stroke-linecap="butt" stroke-linejoin="miter">
	<g transform="translate(507.9,94.0)" stroke="none" fill="black" font-family="Arial" font-size="12.00"  text-anchor="end">
		<text>"data2.txt"</text>
	</g>
</g>
<g fill="none" color="black" stroke="currentColor" stroke-width="1.00" stroke-linecap="butt" stroke-linejoin="miter">
	<path stroke='rgb(  0,   0,   0)'  d='M516.2,90.1 L558.4,90.1 M516.2,85.6 L516.2,94.6 M558.4,85.6 L558.4,94.6 M78.2,107.6 L78.2,38.2
		M73.7,107.6 L82.7,107.6 M73.7,38.2 L82.7,38.2 M84.8,225.3 L84.8,196.2 M80.3,225.3 L89.3,225.3
		M80.3,196.2 L89.3,196.2 M94.4,306.3 L94.4,265.5 M89.9,306.3 L98.9,306.3 M89.9,265.5 L98.9,265.5
		M108.5,339.2 L108.5,306.6 M104.0,339.2 L113.0,339.2 M104.0,306.6 L113.0,306.6 M128.9,387.1 L128.9,331.9
		M124.4,387.1 L133.4,387.1 M124.4,331.9 L133.4,331.9 M158.4,370.2 L158.4,321.3 M153.9,370.2 L162.9,370.2
		M153.9,321.3 L162.9,321.3 M201.5,389.4 L201.5,320.2 M197.0,389.4 L206.0,389.4 M197.0,320.2 L206.0,320.2
		M264.1,316.8 L264.1,288.4 M259.6,316.8 L268.6,316.8 M259.6,288.4 L268.6,288.4 M355.1,268.2 L355.1,180.7
		M350.6,268.2 L359.6,268.2 M350.6,180.7 L359.6,180.7 M487.3,165.5 L487.3,84.5 M482.8,165.5 L491.8,165.5
		M482.8,84.5 L491.8,84.5  '/>	<use xlink:href='#gpPt3' transform='translate(78.2,72.9) scale(4.50)' color='rgb(  0,   0,   0)'/>
	<use xlink:href='#gpPt3' transform='translate(84.8,210.7) scale(4.50)' color='rgb(  0,   0,   0)'/>
	<use xlink:href='#gpPt3' transform='translate(94.4,285.9) scale(4.50)' color='rgb(  0,   0,   0)'/>
	<use xlink:href='#gpPt3' transform='translate(108.5,322.9) scale(4.50)' color='rgb(  0,   0,   0)'/>
	<use xlink:href='#gpPt3' transform='translate(128.9,359.5) scale(4.50)' color='rgb(  0,   0,   0)'/>
	<use xlink:href='#gpPt3' transform='translate(158.4,345.7) scale(4.50)' color='rgb(  0,   0,   0)'/>
	<use xlink:href='#gpPt3' transform='translate(201.5,354.8) scale(4.50)' color='rgb(  0,   0,   0)'/>
	<use xlink:href='#gpPt3' transform='translate(264.1,302.6) scale(4.50)' color='rgb(  0,   0,   0)'/>
	<use xlink:href='#gpPt3' transform='translate(355.1,224.5) scale(4.50)' color='rgb(  0,   0,   0)'/>
	<use xlink:href='#gpPt3' transform='translate(487.3,125.0) scale(4.50)' color='rgb(  0,   0,   0)'/>
	<use xlink:href='#gpPt3' transform='translate(537.3,90.1) scale(4.50)' color='rgb(  0,   0,   0)'/>
</g>
	</g>
	<g id="gnuplot_plot_5" ><title>Data points</title>
<g fill="none" color="black" stroke="currentColor" stroke-width="1.00" stroke-linecap="butt" stroke-linejoin="miter">
	<g transform="translate(507.9,112.0)" stroke="none" fill="black" font-family="Arial" font-size="12.00"  text-anchor="end">
		<text><tspan font-family="Arial" >Data points</tspan></text>
	</g>
</g>
<g fill="none" color="black" stroke="currentColor" stroke-width="1.00" stroke-linecap="butt" stroke-linejoin="miter">
	<use xlink:href='#gpPt6' transform='translate(78.2,72.9) scale(4.50)' color='rgb(255,   0,   0)'/>
	<use xlink:href='#gpPt6' transform='translate(84.8,210.7) scale(4.50)' color='rgb(255,   0,   0)'/>
	<use xlink:href='#gpPt6' transform='translate(94.4,285.9) scale(4.50)' color='rgb(255,   0,   0)'/>
	<use xlink:href='#gpPt6' transform='translate(108.5,322.9) scale(4.50)' color='rgb(255,   0,   0)'/>
	<use xlink:href='#gpPt6' transform='translate(128.9,359.5) scale(4.50)' color='rgb(255,   0,   0)'/>
	<use xlink:href='#gpPt6' transform='translate(158.4,345.7) scale(4.50)' color='rgb(255,   0,   0)'/>
	<use xlink:href='#gpPt6' transform='translate(201.5,354.8) scale(4.50)' color='rgb(255,   0,   0)'/>
	<use xlink:href='#gpPt6' transform='translate(264.1,302.6) scale(4.50)' color='rgb(255,   0,   0)'/>
	<use xlink:href='#gpPt6' transform='translate(355.1,224.5) scale(4.50)' color='rgb(255,   0,   0)'/>
	<use xlink:href='#gpPt6' transform='translate(487.3,125.0) scale(4.50)' color='rgb(255,   0,   0)'/>
	<use xlink:href='#gpPt6' transform='translate(537.3,108.1) scale(4.50)' color='rgb(255,   0,   0)'/>
</g>
	</g>
<g fill="none" color="#FFFFFF" stroke="rgb(255,   0,   0)" stroke-width="2.00" stroke-linecap="butt" stroke-linejoin="miter">
</g>
<g fill="none" color="black" stroke="currentColor" stroke-width="2.00" stroke-linecap="butt" stroke-linejoin="miter">
</g>
<g fill="none" color="black" stroke="black" stroke-width="1.00" stroke-linecap="butt" stroke-linejoin="miter">
</g>
<g fill="none" color="black" stroke="currentColor" stroke-width="1.00" stroke-linecap="butt" stroke-linejoin="miter">
	<path stroke='black'  d='M63.6,18.1 L63.6,422.4 L575.0,422.4 L575.0,18.1 L63.6,18.1 Z  '/></g>
<g fill="none" color="black" stroke="currentColor" stroke-width="1.00" stroke-linecap="butt" stroke-linejoin="miter">
</g>
</g>
</svg>

