\relax 
\citation{err_wiki}
\bibcite{err_wiki}{1}
\@writefile{lof}{\contentsline {figure}{\numberline {1}{\ignorespaces The figure shows the error function plottet form -3 to 3. The functional values have been determined by numerical integration using GSL}}{2}}
\newlabel{figure1}{{1}{2}}
