\relax 
\providecommand*{\memsetcounter}[2]{}
\newlabel{eq1}{{\M@TitleReference {1}{Define cosine}}{1}}
\newlabel{eq2}{{\M@TitleReference {2}{Define cosine}}{1}}
\@writefile{lof}{\contentsline {figure}{\numberline {0.1}{\ignorespaces Math.h cosine vs. redefined cosine}}{2}}
\newlabel{figure1}{{\M@TitleReference {0.1}{Math.h cosine vs. redefined cosine}}{2}}
\memsetcounter{lastsheet}{2}
\memsetcounter{lastpage}{2}
